<?xml version="1.0" encoding="UTF-8" standalone="no"?>
<!-- Created with Inkscape (http://www.inkscape.org/) -->

<svg
   xmlns:dc="http://purl.org/dc/elements/1.1/"
   xmlns:cc="http://creativecommons.org/ns#"
   xmlns:rdf="http://www.w3.org/1999/02/22-rdf-syntax-ns#"
   xmlns:svg="http://www.w3.org/2000/svg"
   xmlns="http://www.w3.org/2000/svg"
   xmlns:sodipodi="http://sodipodi.sourceforge.net/DTD/sodipodi-0.dtd"
   xmlns:inkscape="http://www.inkscape.org/namespaces/inkscape"
   width="800"
   height="800"
   viewBox="0 0 211.66666 211.66667"
   version="1.1"
   id="svg5"
   inkscape:version="0.92.5 (2060ec1f9f, 2020-04-08)"
   sodipodi:docname="longestnight-square-web_plain.svg">
  <metadata
     id="metadata120">
    <rdf:RDF>
      <cc:Work
         rdf:about="">
        <dc:format>image/svg+xml</dc:format>
        <dc:type
           rdf:resource="http://purl.org/dc/dcmitype/StillImage" />
        <dc:title></dc:title>
      </cc:Work>
    </rdf:RDF>
  </metadata>
  <sodipodi:namedview
     id="namedview7"
     pagecolor="#ffffff"
     bordercolor="#666666"
     borderopacity="1.0"
     inkscape:pageshadow="2"
     inkscape:pageopacity="0.0"
     inkscape:pagecheckerboard="0"
     inkscape:document-units="mm"
     showgrid="false"
     showguides="true"
     inkscape:guide-bbox="true"
     inkscape:zoom="0.74599765"
     inkscape:cx="400"
     inkscape:cy="400"
     inkscape:window-width="1872"
     inkscape:window-height="1051"
     inkscape:window-x="48"
     inkscape:window-y="0"
     inkscape:window-maximized="1"
     inkscape:current-layer="layer1"
     units="px"
     inkscape:snap-bbox="true"
     inkscape:bbox-nodes="true"
     inkscape:snap-page="true">
    <sodipodi:guide
       position="70.884275,91.054891"
       orientation="1,0"
       id="guide70806"
       inkscape:locked="false" />
    <sodipodi:guide
       position="160.62268,97.58132"
       orientation="1,0"
       id="guide70808"
       inkscape:locked="false" />
    <sodipodi:guide
       position="118.92605,91.780049"
       orientation="1,0"
       id="guide70810"
       inkscape:locked="false" />
    <sodipodi:guide
       position="113.12478,85.797489"
       orientation="1,0"
       id="guide70812"
       inkscape:locked="false" />
    <sodipodi:guide
       position="52.443712,205.93802"
       orientation="1,0"
       id="guide1281"
       inkscape:locked="false" />
    <sodipodi:guide
       position="56.739901,205.93803"
       orientation="1,0"
       id="guide1283"
       inkscape:locked="false" />
    <sodipodi:guide
       position="4.7625,194.11138"
       orientation="1,0"
       id="guide1285"
       inkscape:locked="false"
       inkscape:label=""
       inkscape:color="rgb(0,0,255)" />
  </sodipodi:namedview>
  <defs
     id="defs2">
    <rect
       x="267.72372"
       y="626.44824"
       width="247.66225"
       height="62.033955"
       id="rect27710" />
    <clipPath
       clipPathUnits="userSpaceOnUse"
       id="clipPath12708">
      <rect
         style="fill:#f1f2da;fill-opacity:1;stroke:none;stroke-width:0.66500098;stroke-linecap:round;stroke-linejoin:round"
         id="rect12710"
         width="51.849739"
         height="51.849739"
         x="8.5687819"
         y="24.014179" />
    </clipPath>
    <rect
       x="267.72372"
       y="626.44824"
       width="247.66225"
       height="62.033955"
       id="rect31552" />
    <rect
       x="267.72372"
       y="626.44824"
       width="247.66225"
       height="62.033955"
       id="rect43546" />
    <rect
       x="267.72372"
       y="626.44824"
       width="247.66225"
       height="62.033955"
       id="rect58997" />
    <rect
       x="267.72372"
       y="626.44824"
       width="247.66225"
       height="62.033955"
       id="rect61457" />
    <rect
       x="267.72372"
       y="626.44824"
       width="247.66225"
       height="62.033955"
       id="rect62147" />
    <rect
       x="267.72372"
       y="626.44824"
       width="247.66225"
       height="62.033955"
       id="rect98491" />
    <rect
       x="267.72372"
       y="626.44824"
       width="247.66225"
       height="62.033955"
       id="rect98493" />
    <rect
       x="267.72372"
       y="626.44824"
       width="247.66225"
       height="62.033955"
       id="rect98495" />
    <rect
       x="267.72372"
       y="626.44824"
       width="247.66225"
       height="62.033955"
       id="rect98497" />
    <rect
       x="267.72372"
       y="626.44824"
       width="247.66225"
       height="62.033955"
       id="rect98499" />
    <rect
       x="267.72372"
       y="626.44824"
       width="247.66225"
       height="62.033955"
       id="rect98501" />
    <rect
       x="267.72372"
       y="626.44824"
       width="247.66225"
       height="62.033955"
       id="rect266142" />
    <rect
       x="267.72372"
       y="626.44824"
       width="247.66225"
       height="62.033955"
       id="rect266144" />
    <rect
       x="267.72372"
       y="626.44824"
       width="247.66225"
       height="62.033955"
       id="rect266146" />
    <rect
       x="267.72372"
       y="626.44824"
       width="247.66225"
       height="62.033955"
       id="rect266148" />
    <rect
       x="267.72372"
       y="626.44824"
       width="247.66225"
       height="62.033955"
       id="rect266150" />
    <rect
       x="267.72372"
       y="626.44824"
       width="247.66225"
       height="62.033955"
       id="rect266152" />
  </defs>
  <g
     inkscape:label="Layer 1"
     inkscape:groupmode="layer"
     id="layer1"
     transform="translate(0,-85.333317)">
    <rect
       style="fill:#f1f2da;fill-opacity:1;stroke:none;stroke-width:1.28354752;stroke-linecap:round;stroke-linejoin:round"
       id="rect32062"
       width="211.66666"
       height="211.66664"
       x="1.0808309e-05"
       y="85.333328"
       inkscape:export-filename="/home/rlafuente/nextcloud/Manufactura WIP/tidalclub-longestnight/rect32062.png"
       inkscape:export-xdpi="225.77"
       inkscape:export-ydpi="225.77" />
    <g
       id="g24708"
       transform="matrix(0.91501191,0,0,0.91501191,100.00386,146.37657)">
      <rect
         style="fill:#ff7777;fill-opacity:1;stroke:none;stroke-width:0.66333598;stroke-linecap:round;stroke-linejoin:round"
         id="rect24700"
         width="51.590492"
         height="51.849739"
         x="8.6984062"
         y="107.51768" />
      <g
         id="g24706"
         clip-path="url(#clipPath12708)"
         transform="translate(0,83.503496)">
        <circle
           style="fill:#f1f2da;fill-opacity:1;stroke:none;stroke-width:0.66500098;stroke-linecap:round;stroke-linejoin:round"
           id="circle24702"
           cx="34.493652"
           cy="92.560684"
           r="33.025448" />
        <rect
           style="fill:#ffce96;fill-opacity:1;stroke:none;stroke-width:0.33250201;stroke-linecap:round;stroke-linejoin:round"
           id="rect24704"
           width="51.849739"
           height="12.9625"
           x="8.5687819"
           y="62.901421" />
      </g>
    </g>
    <g
       id="g24718"
       transform="matrix(0.91501191,0,0,0.91501191,48.462907,146.37657)">
      <rect
         style="fill:#ff7777;fill-opacity:1;stroke:none;stroke-width:0.66333598;stroke-linecap:round;stroke-linejoin:round"
         id="rect24710"
         width="51.590492"
         height="51.849739"
         x="8.6984062"
         y="107.51768" />
      <g
         id="g24716"
         clip-path="url(#clipPath12708)"
         transform="translate(0,83.503496)">
        <circle
           style="fill:#f1f2da;fill-opacity:1;stroke:none;stroke-width:0.66500098;stroke-linecap:round;stroke-linejoin:round"
           id="circle24712"
           cx="34.493652"
           cy="90.321472"
           r="33.025448" />
        <rect
           style="fill:#ffce96;fill-opacity:1;stroke:none;stroke-width:0.33250201;stroke-linecap:round;stroke-linejoin:round"
           id="rect24714"
           width="51.849739"
           height="12.9625"
           x="8.5687819"
           y="62.901421" />
      </g>
    </g>
    <g
       id="g24728"
       transform="matrix(0.91501191,0,0,0.91501191,151.54485,146.37657)">
      <rect
         style="fill:#ff7777;fill-opacity:1;stroke:none;stroke-width:0.66333598;stroke-linecap:round;stroke-linejoin:round"
         id="rect24720"
         width="51.590492"
         height="51.849739"
         x="8.6984062"
         y="107.51768" />
      <g
         id="g24726"
         clip-path="url(#clipPath12708)"
         transform="translate(0,83.503496)">
        <circle
           style="fill:#f1f2da;fill-opacity:1;stroke:none;stroke-width:0.66500098;stroke-linecap:round;stroke-linejoin:round"
           id="circle24722"
           cx="34.493652"
           cy="94.799896"
           r="33.025448" />
        <rect
           style="fill:#ffce96;fill-opacity:1;stroke:none;stroke-width:0.33250201;stroke-linecap:round;stroke-linejoin:round"
           id="rect24724"
           width="51.849739"
           height="12.9625"
           x="8.5687819"
           y="62.901421" />
      </g>
    </g>
    <g
       id="g24738"
       transform="matrix(0.91501191,0,0,0.91501191,-3.0780374,146.37657)">
      <rect
         style="fill:#ff7777;fill-opacity:1;stroke:none;stroke-width:0.66333598;stroke-linecap:round;stroke-linejoin:round"
         id="rect24730"
         width="51.590492"
         height="51.849739"
         x="8.6984062"
         y="107.51768" />
      <g
         id="g24736"
         clip-path="url(#clipPath12708)"
         transform="translate(0,83.503496)">
        <circle
           style="fill:#f1f2da;fill-opacity:1;stroke:none;stroke-width:0.66500098;stroke-linecap:round;stroke-linejoin:round"
           id="circle24732"
           cx="34.493652"
           cy="88.08226"
           r="33.025448" />
        <rect
           style="fill:#ffce96;fill-opacity:1;stroke:none;stroke-width:0.33250201;stroke-linecap:round;stroke-linejoin:round"
           id="rect24734"
           width="51.849739"
           height="12.9625"
           x="8.5687819"
           y="62.901421" />
      </g>
    </g>
    <g
       id="g24748"
       transform="matrix(0.91501191,0,0,0.91501191,151.54485,94.835617)">
      <rect
         style="fill:#ff7777;fill-opacity:1;stroke:none;stroke-width:0.66333598;stroke-linecap:round;stroke-linejoin:round"
         id="rect24740"
         width="51.590492"
         height="51.849739"
         x="8.6984062"
         y="107.51768" />
      <g
         id="g24746"
         clip-path="url(#clipPath12708)"
         transform="translate(0,83.503496)">
        <circle
           style="fill:#f1f2da;fill-opacity:1;stroke:none;stroke-width:0.66500098;stroke-linecap:round;stroke-linejoin:round"
           id="circle24742"
           cx="34.493652"
           cy="88.08226"
           r="33.025448" />
        <rect
           style="fill:#ffce96;fill-opacity:1;stroke:none;stroke-width:0.33250201;stroke-linecap:round;stroke-linejoin:round"
           id="rect24744"
           width="51.849739"
           height="12.9625"
           x="8.5687819"
           y="62.901421" />
      </g>
    </g>
    <g
       id="g24758"
       transform="matrix(1.935976,0,0,1.935976,-76.417718,-157.12515)">
      <rect
         style="fill:#ff7777;fill-opacity:1;stroke:none;stroke-width:0.31351599;stroke-linecap:round;stroke-linejoin:round"
         id="rect24750"
         width="24.383524"
         height="24.506054"
         x="95.239174"
         y="180.96339" />
      <g
         id="g24756"
         clip-path="url(#clipPath12708)"
         transform="matrix(0.47263602,0,0,0.47263602,91.127997,169.61342)">
        <circle
           style="fill:#f1f2da;fill-opacity:1;stroke:none;stroke-width:0.66500098;stroke-linecap:round;stroke-linejoin:round"
           id="circle24752"
           cx="34.493652"
           cy="85.843048"
           r="33.025448" />
        <rect
           style="fill:#ffce96;fill-opacity:1;stroke:none;stroke-width:0.33250201;stroke-linecap:round;stroke-linejoin:round"
           id="rect24754"
           width="51.849739"
           height="12.9625"
           x="8.5687819"
           y="62.901421" />
      </g>
    </g>
    <g
       id="g24768"
       transform="matrix(1.935976,0,0,1.935976,-76.417718,-157.12515)">
      <rect
         style="fill:#ff7777;fill-opacity:1;stroke:none;stroke-width:0.31351599;stroke-linecap:round;stroke-linejoin:round"
         id="rect24760"
         width="24.383524"
         height="24.506054"
         x="68.616455"
         y="180.96339" />
      <g
         id="g24766"
         clip-path="url(#clipPath12708)"
         transform="matrix(0.47263602,0,0,0.47263602,64.505276,169.61342)">
        <circle
           style="fill:#f1f2da;fill-opacity:1;stroke:none;stroke-width:0.66500098;stroke-linecap:round;stroke-linejoin:round"
           id="circle24762"
           cx="34.493652"
           cy="82.48423"
           r="33.025448" />
        <rect
           style="fill:#ffce96;fill-opacity:1;stroke:none;stroke-width:0.33250201;stroke-linecap:round;stroke-linejoin:round"
           id="rect24764"
           width="51.849739"
           height="12.9625"
           x="8.5687819"
           y="62.901421" />
      </g>
    </g>
    <g
       id="g24778"
       transform="matrix(1.935976,0,0,1.935976,-76.417718,-157.12515)">
      <rect
         style="fill:#ff7777;fill-opacity:1;stroke:none;stroke-width:0.31351599;stroke-linecap:round;stroke-linejoin:round"
         id="rect24770"
         width="24.383524"
         height="24.506054"
         x="41.993736"
         y="180.96339" />
      <g
         id="g24776"
         clip-path="url(#clipPath12708)"
         transform="matrix(0.47263602,0,0,0.47263602,37.882548,169.61342)">
        <circle
           style="fill:#f1f2da;fill-opacity:1;stroke:none;stroke-width:0.66500098;stroke-linecap:round;stroke-linejoin:round"
           id="circle24772"
           cx="34.493652"
           cy="79.125412"
           r="33.025448" />
        <rect
           style="fill:#ffce96;fill-opacity:1;stroke:none;stroke-width:0.33250201;stroke-linecap:round;stroke-linejoin:round"
           id="rect24774"
           width="51.849739"
           height="12.9625"
           x="8.5687819"
           y="62.901421" />
      </g>
    </g>
    <g
       id="g24788"
       transform="matrix(1.935976,0,0,1.935976,-76.417718,-157.12515)">
      <rect
         style="fill:#ff7777;fill-opacity:1;stroke:none;stroke-width:0.31297001;stroke-linecap:round;stroke-linejoin:round"
         id="rect24780"
         width="24.298677"
         height="24.506054"
         x="121.90498"
         y="154.34084" />
      <g
         id="g24786"
         clip-path="url(#clipPath12708)"
         transform="matrix(0.47263602,0,0,0.47263602,117.75071,142.9907)">
        <circle
           style="fill:#f1f2da;fill-opacity:1;stroke:none;stroke-width:0.66500098;stroke-linecap:round;stroke-linejoin:round"
           id="circle24782"
           cx="34.493652"
           cy="75.766594"
           r="33.025448" />
        <rect
           style="fill:#ffce96;fill-opacity:1;stroke:none;stroke-width:0.33250201;stroke-linecap:round;stroke-linejoin:round"
           id="rect24784"
           width="51.849739"
           height="12.9625"
           x="8.5687819"
           y="62.901421" />
      </g>
    </g>
    <rect
       style="fill:#ff7777;fill-opacity:1;stroke:none;stroke-width:0.60590345;stroke-linecap:round;stroke-linejoin:round"
       id="rect24790"
       width="47.041653"
       height="47.44313"
       x="108.04649"
       y="141.67471" />
    <g
       id="g24796"
       clip-path="url(#clipPath12708)"
       transform="matrix(0.91501191,0,0,0.91501191,100.00387,119.70137)">
      <circle
         style="fill:#f1f2da;fill-opacity:1;stroke:none;stroke-width:0.66500098;stroke-linecap:round;stroke-linejoin:round"
         id="circle24792"
         cx="34.493652"
         cy="72.407776"
         r="33.025448" />
      <rect
         style="fill:#ffce96;fill-opacity:1;stroke:none;stroke-width:0.33250201;stroke-linecap:round;stroke-linejoin:round"
         id="rect24794"
         width="51.849739"
         height="12.9625"
         x="8.5687819"
         y="62.901421" />
    </g>
    <rect
       style="fill:#ff7777;fill-opacity:1;stroke:none;stroke-width:0.60590345;stroke-linecap:round;stroke-linejoin:round"
       id="rect24798"
       width="47.041653"
       height="47.44313"
       x="56.505585"
       y="141.67471" />
    <g
       id="g24804"
       clip-path="url(#clipPath12708)"
       transform="matrix(0.91501191,0,0,0.91501191,48.46293,119.70137)">
      <circle
         style="fill:#f1f2da;fill-opacity:1;stroke:none;stroke-width:0.66500098;stroke-linecap:round;stroke-linejoin:round"
         id="circle24800"
         cx="34.493652"
         cy="69.048958"
         r="33.025448" />
      <rect
         style="fill:#ffce96;fill-opacity:1;stroke:none;stroke-width:0.33250201;stroke-linecap:round;stroke-linejoin:round"
         id="rect24802"
         width="51.849739"
         height="12.9625"
         x="8.5687819"
         y="62.901421" />
    </g>
    <rect
       style="fill:#ff7777;fill-opacity:1;stroke:none;stroke-width:0.60590345;stroke-linecap:round;stroke-linejoin:round"
       id="rect24806"
       width="47.041653"
       height="47.44313"
       x="4.9646735"
       y="141.67471" />
    <g
       id="g24812"
       clip-path="url(#clipPath12708)"
       transform="matrix(0.91501191,0,0,0.91501191,-3.0780209,119.70137)">
      <circle
         style="fill:#f1f2da;fill-opacity:1;stroke:none;stroke-width:0.66500098;stroke-linecap:round;stroke-linejoin:round"
         id="circle24808"
         cx="34.493652"
         cy="65.69014"
         r="33.025448" />
      <rect
         style="fill:#ffce96;fill-opacity:1;stroke:none;stroke-width:0.33250201;stroke-linecap:round;stroke-linejoin:round"
         id="rect24810"
         width="51.849739"
         height="12.9625"
         x="8.5687819"
         y="62.901421" />
    </g>
    <rect
       style="fill:#ff7777;fill-opacity:1;stroke:none;stroke-width:0.6056428;stroke-linecap:round;stroke-linejoin:round"
       id="rect24814"
       width="47.402557"
       height="47.041653"
       x="159.38536"
       y="90.535088" />
    <g
       id="g24820"
       clip-path="url(#clipPath12708)"
       transform="matrix(0.92033924,0,0,0.91501191,151.29865,68.16042)">
      <circle
         style="fill:#f1f2da;fill-opacity:1;stroke:none;stroke-width:0.66500098;stroke-linecap:round;stroke-linejoin:round"
         id="circle24816"
         cx="34.493652"
         cy="61.211716"
         r="33.025448" />
      <rect
         style="fill:#ffce96;fill-opacity:1;stroke:none;stroke-width:0.33250201;stroke-linecap:round;stroke-linejoin:round"
         id="rect24818"
         width="51.849739"
         height="12.9625"
         x="8.5687819"
         y="62.901421" />
    </g>
    <rect
       style="fill:#ff7777;fill-opacity:1;stroke:none;stroke-width:0.60590345;stroke-linecap:round;stroke-linejoin:round"
       id="rect24822"
       width="47.44313"
       height="47.041653"
       x="107.84442"
       y="90.535088" />
    <g
       id="g24828"
       clip-path="url(#clipPath12708)"
       transform="matrix(0.92033924,0,0,0.91501191,99.757681,68.16042)">
      <circle
         style="fill:#f1f2da;fill-opacity:1;stroke:none;stroke-width:0.66500098;stroke-linecap:round;stroke-linejoin:round"
         id="circle24824"
         cx="34.493652"
         cy="56.733292"
         r="33.025448" />
      <rect
         style="fill:#ffce96;fill-opacity:1;stroke:none;stroke-width:0.33250201;stroke-linecap:round;stroke-linejoin:round"
         id="rect24826"
         width="51.849739"
         height="12.9625"
         x="8.5687819"
         y="62.901421" />
    </g>
    <rect
       style="fill:#ff7777;fill-opacity:1;stroke:none;stroke-width:0.60333294;stroke-linecap:round;stroke-linejoin:round"
       id="rect24830"
       width="47.041653"
       height="47.041653"
       x="56.481514"
       y="90.535088" />
    <g
       id="g24836"
       clip-path="url(#clipPath12708)"
       transform="matrix(0.91501191,0,0,0.91501191,48.462903,68.16042)">
      <circle
         style="fill:#f1f2da;fill-opacity:1;stroke:none;stroke-width:0.66500098;stroke-linecap:round;stroke-linejoin:round"
         id="circle24832"
         cx="34.492004"
         cy="52.25436"
         r="33.025448" />
      <rect
         style="fill:#ffce96;fill-opacity:1;stroke:none;stroke-width:0.33250201;stroke-linecap:round;stroke-linejoin:round"
         id="rect24834"
         width="51.849739"
         height="12.9625"
         x="8.5687819"
         y="62.901421" />
    </g>
    <rect
       style="fill:#ff7777;fill-opacity:1;stroke:none;stroke-width:0.6051054;stroke-linecap:round;stroke-linejoin:round"
       id="rect24838"
       width="47.318348"
       height="47.041653"
       x="4.844368"
       y="90.535088" />
    <g
       id="g24844"
       clip-path="url(#clipPath12708)"
       transform="matrix(0.91501191,0,0,0.91501191,-3.0779972,68.16042)">
      <circle
         style="fill:#f1f2da;fill-opacity:1;stroke:none;stroke-width:0.66500098;stroke-linecap:round;stroke-linejoin:round"
         id="circle24840"
         cx="34.493652"
         cy="47.776443"
         r="33.025448" />
      <rect
         style="fill:#ffce96;fill-opacity:1;stroke:none;stroke-width:0.37311;stroke-linecap:round;stroke-linejoin:round"
         id="rect24842"
         width="58.182076"
         height="14.545591"
         x="8.5687819"
         y="62.901421" />
    </g>
  </g>
</svg>
